{
  "v": "1.0",
  "app_version": "1.4.0",
  "name": "grist",
  "icon": "icon.svg",
  "upstream_repo": "https://github.com/gristlabs/grist-core",
  "entrypoints": [
    {
      "container_name": "grist",
      "container_port": 8484,
      "entrypoint_port": "http"
    }
  ],
  "lifecycle": {
    "always_on": false,
    "idle_time_for_shutdown": 3600
  },
  "paths": {
    "": {
      "access": "private",
      "headers": {
        "X-Ptl-Authenticated-User": "admin@{{ portal.domain }}"
      }
    }
  },
  "store_info": {
    "description_short": "Combine the flexibility of a spreadsheet with the robustness of a database to organize your data, your way.",
    "description_long": "Grist is a modern relational spreadsheet. It combines the flexibility of a spreadsheet with the robustness of a database to organize your data and make you more productive.",
    "hint": "Multi-user features are not functional yet, only you can use the app."
  }
}
